<svg width="106" height="42" viewBox="0 0 106 42" fill="none" xmlns="http://www.w3.org/2000/svg">
<rect width="106" height="42" rx="21" fill="#0D85B7"/>
<path d="M25.4 22C25.4 22.3 25.1 22.6 24.7 22.6C24.3 22.6 24 22.4 24 22V14.8C24 14.5 24.3 14.2 24.7 14.2C25.1 14.2 25.4 14.4 25.4 14.8V22ZM33.4 19.6C33.4 22 33.2 23.2 32.8 24.3C32.3 25.5 31.6 26.2 30.4 26.9C29.5 27.4 28.1 27.9 27.6 27.9C27.3 27.9 27 27.6 27 27.2C27 27 27.1 26.8 27.3 26.7C27.4 26.7 27.4 26.7 27.8 26.6C31.1 25.6 32.1 24 32.1 19.6V14.6C32.1 14.3 32.4 14 32.8 14C33.2 14 33.5 14.2 33.5 14.6V19.6H33.4Z" fill="white"/>
<path d="M25.4 22C25.4 22.3 25.1 22.6 24.7 22.6C24.3 22.6 24 22.4 24 22V14.8C24 14.5 24.3 14.2 24.7 14.2C25.1 14.2 25.4 14.4 25.4 14.8V22ZM33.4 19.6C33.4 22 33.2 23.2 32.8 24.3C32.3 25.5 31.6 26.2 30.4 26.9C29.5 27.4 28.1 27.9 27.6 27.9C27.3 27.9 27 27.6 27 27.2C27 27 27.1 26.8 27.3 26.7C27.4 26.7 27.4 26.7 27.8 26.6C31.1 25.6 32.1 24 32.1 19.6V14.6C32.1 14.3 32.4 14 32.8 14C33.2 14 33.5 14.2 33.5 14.6V19.6H33.4Z" stroke="white" stroke-width="0.5" stroke-miterlimit="10"/>
<path d="M41.2 14.7001C41.2 14.4001 41.5 14.1001 41.9 14.1001C42.3 14.1001 42.5 14.3001 42.5 14.7001V18.0001L49.6 17.1001H49.8C50.4 17.1001 50.8 17.5001 50.8 18.0001C50.8 18.7001 49.6 20.7001 48.5 21.9001C47.7 22.7001 47.2 23.2001 46.9 23.2001C46.6 23.2001 46.3 22.9001 46.3 22.6001C46.3 22.4001 46.3 22.3001 46.8 21.9001C47.8 21.1001 49.2 19.2001 49.2 18.6001C49.2 18.5001 49.1 18.4001 49 18.4001H48.9L42.4 19.3001V25.1001C42.4 25.8001 42.5 26.0001 42.8 26.2001C43.1 26.3001 44.3 26.4001 45.8 26.4001C46.9 26.4001 48.6 26.3001 49.3 26.2001C49.4 26.2001 49.4 26.2001 49.5 26.2001C49.8 26.2001 50.1 26.5001 50.1 26.8001C50.1 27.1001 49.9 27.4001 49.5 27.4001C49.2 27.4001 47.3 27.5001 46.1 27.5001C43.7 27.5001 42.5 27.4001 42 27.2001C41.3 26.9001 41.1 26.4001 41.1 25.3001V19.5001L38.2 19.9001H38.1C37.8 19.9001 37.6 19.7001 37.6 19.3001C37.6 18.9001 37.8 18.7001 38.1 18.6001L41.2 18.2001V14.7001V14.7001Z" fill="white"/>
<path d="M41.2 14.7001C41.2 14.4001 41.5 14.1001 41.9 14.1001C42.3 14.1001 42.5 14.3001 42.5 14.7001V18.0001L49.6 17.1001H49.8C50.4 17.1001 50.8 17.5001 50.8 18.0001C50.8 18.7001 49.6 20.7001 48.5 21.9001C47.7 22.7001 47.2 23.2001 46.9 23.2001C46.6 23.2001 46.3 22.9001 46.3 22.6001C46.3 22.4001 46.3 22.3001 46.8 21.9001C47.8 21.1001 49.2 19.2001 49.2 18.6001C49.2 18.5001 49.1 18.4001 49 18.4001H48.9L42.4 19.3001V25.1001C42.4 25.8001 42.5 26.0001 42.8 26.2001C43.1 26.3001 44.3 26.4001 45.8 26.4001C46.9 26.4001 48.6 26.3001 49.3 26.2001C49.4 26.2001 49.4 26.2001 49.5 26.2001C49.8 26.2001 50.1 26.5001 50.1 26.8001C50.1 27.1001 49.9 27.4001 49.5 27.4001C49.2 27.4001 47.3 27.5001 46.1 27.5001C43.7 27.5001 42.5 27.4001 42 27.2001C41.3 26.9001 41.1 26.4001 41.1 25.3001V19.5001L38.2 19.9001H38.1C37.8 19.9001 37.6 19.7001 37.6 19.3001C37.6 18.9001 37.8 18.7001 38.1 18.6001L41.2 18.2001V14.7001V14.7001Z" stroke="white" stroke-width="0.5" stroke-miterlimit="10"/>
<path d="M56.4 18.8001C56.8 19.8001 57.3 21.6001 57.3 22.0001C57.3 22.3001 57 22.5001 56.7 22.5001C56.5 22.5001 56.3 22.4001 56.2 22.2001C56.1 22.1001 56.1 22.1001 56.1 21.7001C55.9 20.9001 55.4 19.4001 55.1 18.6001C55 18.5001 55 18.3001 55 18.2001C55 17.9001 55.3 17.7001 55.6 17.7001C55.9 17.8001 56.1 18.0001 56.4 18.8001ZM65.4 17.9001C65.4 18.3001 65.1 20.1001 64.9 20.9001C64.2 23.5001 63.3 25.1001 61.7 26.3001C60.7 27.0001 58.9 27.9001 58.3 27.9001C58 27.9001 57.8 27.6001 57.8 27.3001C57.8 27.1001 57.9 26.9001 58.1 26.8001C58.2 26.8001 58.2 26.8001 58.6 26.6001C60.6 26.0001 62.3 24.5001 63 22.8001C63.6 21.6001 64 19.9001 64.2 17.8001C64.2 17.4001 64.4 17.2001 64.8 17.2001C65.1 17.3001 65.4 17.5001 65.4 17.9001ZM59.8 17.9001C60.2 18.9001 60.8 20.9001 60.8 21.3001C60.8 21.6001 60.5 21.9001 60.2 21.9001C60 21.9001 59.8 21.8001 59.7 21.6001C59.7 21.5001 59.7 21.5001 59.6 21.2001C59.4 20.2001 58.9 18.8001 58.6 18.1001C58.5 17.9001 58.5 17.8001 58.5 17.7001C58.5 17.4001 58.8 17.2001 59.1 17.2001C59.4 17.2001 59.6 17.3001 59.8 17.9001Z" fill="white"/>
<path d="M56.4 18.8001C56.8 19.8001 57.3 21.6001 57.3 22.0001C57.3 22.3001 57 22.5001 56.7 22.5001C56.5 22.5001 56.3 22.4001 56.2 22.2001C56.1 22.1001 56.1 22.1001 56.1 21.7001C55.9 20.9001 55.4 19.4001 55.1 18.6001C55 18.5001 55 18.3001 55 18.2001C55 17.9001 55.3 17.7001 55.6 17.7001C55.9 17.8001 56.1 18.0001 56.4 18.8001ZM65.4 17.9001C65.4 18.3001 65.1 20.1001 64.9 20.9001C64.2 23.5001 63.3 25.1001 61.7 26.3001C60.7 27.0001 58.9 27.9001 58.3 27.9001C58 27.9001 57.8 27.6001 57.8 27.3001C57.8 27.1001 57.9 26.9001 58.1 26.8001C58.2 26.8001 58.2 26.8001 58.6 26.6001C60.6 26.0001 62.3 24.5001 63 22.8001C63.6 21.6001 64 19.9001 64.2 17.8001C64.2 17.4001 64.4 17.2001 64.8 17.2001C65.1 17.3001 65.4 17.5001 65.4 17.9001ZM59.8 17.9001C60.2 18.9001 60.8 20.9001 60.8 21.3001C60.8 21.6001 60.5 21.9001 60.2 21.9001C60 21.9001 59.8 21.8001 59.7 21.6001C59.7 21.5001 59.7 21.5001 59.6 21.2001C59.4 20.2001 58.9 18.8001 58.6 18.1001C58.5 17.9001 58.5 17.8001 58.5 17.7001C58.5 17.4001 58.8 17.2001 59.1 17.2001C59.4 17.2001 59.6 17.3001 59.8 17.9001Z" stroke="white" stroke-width="0.5" stroke-miterlimit="10"/>
<path d="M74 27.5C74 27.8 73.7 28.1 73.3 28.1C72.9 28.1 72.6 27.9 72.6 27.5V14.6C72.6 14.3 72.9 14 73.3 14C73.7 14 74 14.3 74 14.6V18.6C77 19.5 79.2 20.3 80.9 21.2C81.2 21.4 81.2 21.4 81.3 21.4C81.5 21.5 81.6 21.7 81.6 21.9C81.6 22.3 81.3 22.6 81 22.6C80.8 22.6 80.8 22.6 80.3 22.3C78.8 21.5 76.2 20.5 74.1 19.8V27.5H74Z" fill="white"/>
<path d="M74 27.5C74 27.8 73.7 28.1 73.3 28.1C72.9 28.1 72.6 27.9 72.6 27.5V14.6C72.6 14.3 72.9 14 73.3 14C73.7 14 74 14.3 74 14.6V18.6C77 19.5 79.2 20.3 80.9 21.2C81.2 21.4 81.2 21.4 81.3 21.4C81.5 21.5 81.6 21.7 81.6 21.9C81.6 22.3 81.3 22.6 81 22.6C80.8 22.6 80.8 22.6 80.3 22.3C78.8 21.5 76.2 20.5 74.1 19.8V27.5H74Z" stroke="white" stroke-width="0.5" stroke-miterlimit="10"/>
</svg>
