<svg width="106" height="43" viewBox="0 0 106 43" fill="none" xmlns="http://www.w3.org/2000/svg">
<g clip-path="url(#clip0)">
<path d="M86.43 42.22H20.96C11.95 42.22 0 33.46 0 20.51C0 9.23 8.28 0 19.57 0H85.04C96.32 0 106 10.63 106 21.91C106 33.19 97.71 42.22 86.43 42.22Z" fill="#0D85B7"/>
<path d="M84.47 37.89H19.44C9.27 37.89 0.940002 29.57 0.940002 19.39C0.940002 9.22 9.26 0.889999 19.44 0.889999H84.47C94.64 0.889999 102.97 9.21 102.97 19.39C102.97 29.56 94.64 37.89 84.47 37.89Z" fill="#0D85B7" stroke="#0D85B7" stroke-miterlimit="10"/>
<path d="M23.23 26.24C23.23 26.51 22.99 26.69 22.61 26.69C22.27 26.69 22.04 26.51 22.04 26.24V14.91C22.04 14.03 22.43 13.64 23.3 13.64H32.99C33.87 13.64 34.28 14.03 34.28 14.91V25.17C34.28 26.22 33.89 26.58 32.75 26.58C31.96 26.58 30.73 26.52 30.25 26.44C29.87 26.38 29.67 26.19 29.67 25.86C29.67 25.47 29.9 25.28 30.32 25.28C30.36 25.28 30.36 25.28 31.34 25.36C31.78 25.4 32.22 25.42 32.49 25.42C32.96 25.42 33.11 25.28 33.11 24.88V20.29H23.24V26.24H23.23ZM27.47 14.72H23.65C23.36 14.72 23.23 14.86 23.23 15.14V19.22H27.47V14.72ZM33.1 15.14C33.1 14.86 32.96 14.72 32.68 14.72H28.63V19.22H33.1V15.14Z" fill="white" stroke="white" stroke-width="0.5" stroke-miterlimit="10"/>
<path d="M40.12 15.89C39.83 15.89 39.62 15.67 39.62 15.38C39.62 15.08 39.83 14.86 40.12 14.86H43.64C44 14.29 44.31 13.78 44.45 13.53C44.6 13.23 44.76 13.11 44.99 13.11C45.35 13.11 45.59 13.3 45.59 13.57C45.59 13.75 45.44 14.03 44.92 14.86H49.88C50.15 14.86 50.36 15.08 50.36 15.37C50.36 15.68 50.16 15.89 49.88 15.89H44.21C43.54 16.87 42.89 17.68 42.17 18.49C43.19 17.84 43.97 17.57 44.78 17.57C45.99 17.57 46.76 18.21 47.09 19.52C48.97 18.91 50.64 18.43 50.93 18.43C51.23 18.43 51.47 18.68 51.47 19.01C51.47 19.19 51.37 19.35 51.2 19.43C51.16 19.46 51.11 19.47 50.87 19.54C50.09 19.71 48.35 20.2 47.26 20.56C47.32 21.25 47.38 22.18 47.38 22.59C47.38 23.05 47.2 23.28 46.8 23.28C46.36 23.28 46.21 23.11 46.21 22.67C46.2 21.57 46.2 21.51 46.18 20.97C43.72 21.92 42.69 22.69 42.69 23.58C42.69 24.03 43.03 24.39 43.62 24.57C44.08 24.72 45.04 24.8 46.2 24.8C47.1 24.8 49.12 24.71 49.93 24.65C50 24.64 50.06 24.64 50.11 24.64C50.44 24.64 50.68 24.88 50.68 25.21C50.68 25.54 50.48 25.77 50.17 25.79C49.75 25.85 47.98 25.91 46.99 25.91C44.95 25.91 43.57 25.78 42.82 25.49C41.95 25.16 41.49 24.54 41.49 23.7C41.49 22.73 42.09 21.9 43.37 21.12C44.1 20.67 44.63 20.41 46.06 19.87C45.77 18.89 45.34 18.47 44.59 18.47C43.54 18.47 41.62 19.52 40.38 20.78C40.17 20.97 40.05 21.05 39.88 21.05C39.63 21.05 39.36 20.76 39.36 20.51C39.36 20.3 39.4 20.22 39.71 19.93C40.94 18.67 41.79 17.59 42.96 15.89H40.12Z" fill="white" stroke="white" stroke-width="0.5" stroke-miterlimit="10"/>
<path d="M63.77 19.77C64.11 20.79 64.58 21.69 65.12 22.39C65.68 22.05 67.03 21.03 67.68 20.44C67.89 20.26 68.06 20.19 68.24 20.19C68.54 20.19 68.85 20.49 68.85 20.8C68.85 21.01 68.76 21.15 68.46 21.37C67.66 21.99 66.78 22.57 65.76 23.16C66.63 24.08 67.7 24.79 69.09 25.41C69.43 25.54 69.58 25.72 69.58 25.99C69.58 26.33 69.3 26.63 68.95 26.63C68.4 26.63 66.55 25.46 65.5 24.46C64.19 23.21 63.31 21.73 62.71 19.78C62 20.5 61.45 20.96 60.45 21.69V25.15C61.92 24.77 62.55 24.61 63.15 24.43C63.67 24.25 63.71 24.25 63.86 24.25C64.17 24.25 64.4 24.49 64.4 24.83C64.4 25.03 64.26 25.19 64.04 25.28C62.84 25.76 58.58 26.79 57.8 26.79C57.44 26.79 57.23 26.57 57.23 26.19C57.23 25.98 57.33 25.81 57.53 25.74C57.63 25.7 57.71 25.68 58.17 25.61C58.71 25.52 58.95 25.47 59.31 25.38V22.41L59.18 22.49C57.92 23.23 56.31 23.95 55.95 23.95C55.65 23.95 55.4 23.66 55.4 23.35C55.4 23.17 55.49 22.99 55.65 22.9C55.72 22.86 55.72 22.86 56.25 22.67C57.83 22.16 59.88 20.98 61.37 19.76H56.09C55.82 19.76 55.64 19.56 55.64 19.29C55.64 19.01 55.82 18.8 56.09 18.8H62.1V17.36H57.36C57.1 17.36 56.95 17.18 56.95 16.9C56.95 16.62 57.12 16.44 57.36 16.44H62.1V15.06H56.62C56.37 15.06 56.2 14.86 56.2 14.58C56.2 14.3 56.37 14.1 56.62 14.1H62.1V13.03C62.1 12.78 62.33 12.6 62.65 12.6C63 12.6 63.23 12.78 63.23 13.03V14.1H68.67C68.91 14.1 69.09 14.29 69.09 14.58C69.09 14.87 68.93 15.06 68.67 15.06H63.23V16.44H67.91C68.16 16.44 68.33 16.62 68.33 16.9C68.33 17.18 68.16 17.36 67.91 17.36H63.23V18.8H69.26C69.5 18.8 69.68 19.01 69.68 19.29C69.68 19.56 69.5 19.76 69.26 19.76H63.77V19.77Z" fill="white" stroke="white" stroke-width="0.5" stroke-miterlimit="10"/>
<path d="M80.56 25.43C80.56 26.03 80.41 26.38 80.08 26.56C79.83 26.69 79.56 26.73 78.73 26.73C77.06 26.73 76.66 26.6 76.66 26.02C76.66 25.68 76.9 25.44 77.24 25.44C77.3 25.44 77.33 25.44 77.47 25.47C77.77 25.51 78.32 25.55 78.79 25.55C79.26 25.55 79.39 25.43 79.39 25.02V18.64H73.53C73.26 18.64 73.08 18.42 73.08 18.1C73.08 17.79 73.27 17.55 73.53 17.55H86.3C86.57 17.55 86.76 17.79 86.76 18.1C86.76 18.43 86.56 18.64 86.3 18.64H80.55V25.43H80.56ZM76.85 20.52C76.85 20.88 76.01 22.6 75.29 23.73C74.54 24.9 74.16 25.31 73.83 25.31C73.52 25.31 73.2 25.01 73.2 24.69C73.2 24.47 73.23 24.41 73.58 23.98C74.33 23.04 75.18 21.55 75.68 20.35C75.78 20.08 75.98 19.93 76.2 19.93C76.57 19.94 76.85 20.19 76.85 20.52ZM84.58 13.59C84.85 13.59 85.06 13.82 85.06 14.13C85.06 14.45 84.87 14.66 84.58 14.66H75.24C74.97 14.66 74.78 14.44 74.78 14.13C74.78 13.82 74.97 13.59 75.24 13.59H84.58ZM84.05 20.31C85.02 21.63 85.59 22.5 86.45 24.05C86.54 24.22 86.58 24.36 86.58 24.5C86.58 24.8 86.27 25.1 85.92 25.1C85.74 25.1 85.56 25.01 85.44 24.86C85.39 24.82 85.39 24.82 85.21 24.48C84.5 23.13 83.69 21.83 83 20.87C82.88 20.72 82.83 20.58 82.83 20.45C82.83 20.15 83.1 19.89 83.41 19.89C83.68 19.89 83.8 19.98 84.05 20.31Z" fill="white" stroke="white" stroke-width="0.5" stroke-miterlimit="10"/>
</g>
<defs>
<clipPath id="clip0">
<rect width="106" height="42.22" fill="white"/>
</clipPath>
</defs>
</svg>
