<svg width="106" height="43" viewBox="0 0 106 43" fill="none" xmlns="http://www.w3.org/2000/svg">
<g clip-path="url(#clip0)">
<path d="M86.43 42.22H20.96C11.95 42.22 0 33.46 0 20.51C0 9.23 8.28 0 19.57 0H85.04C96.32 0 106 10.63 106 21.91C106 33.19 97.71 42.22 86.43 42.22Z" fill="#0D85B7"/>
<path d="M84.4699 37.89H19.4399C9.26994 37.89 0.939941 29.57 0.939941 19.39C0.939941 9.22 9.25994 0.889999 19.4399 0.889999H84.4699C94.6399 0.889999 102.97 9.21 102.97 19.39C102.97 29.56 94.6399 37.89 84.4699 37.89Z" fill="#0D85B7" stroke="#0D85B7" stroke-miterlimit="10"/>
<path d="M31.24 13.84C32.06 13.84 32.49 14.27 32.49 15.09V26.37C32.49 27.19 32.07 27.6 31.24 27.6H20.23C19.41 27.6 19 27.18 19 26.38V15.09C19 14.27 19.42 13.84 20.23 13.84H31.24ZM20.23 26.07C20.23 26.36 20.34 26.49 20.63 26.49H30.83C31.12 26.49 31.26 26.36 31.26 26.06V15.41C31.26 15.12 31.1 14.96 30.83 14.96H20.63C20.36 14.96 20.23 15.09 20.23 15.41V26.07ZM26.93 22.38L27.03 22.43C27.73 22.8 29.67 23.87 29.94 24.06C30.15 24.19 30.24 24.36 30.24 24.56C30.24 24.88 29.94 25.2 29.65 25.2C29.46 25.2 29.46 25.2 28.74 24.75C27.86 24.21 27.16 23.79 26.02 23.17C24.61 24.42 22.43 25.71 21.73 25.71C21.41 25.71 21.14 25.42 21.14 25.1C21.14 24.92 21.24 24.75 21.4 24.65C21.5 24.59 21.5 24.59 21.93 24.41C22.78 24.06 24.03 23.29 24.91 22.55C23.21 21.69 22.97 21.56 21.68 20.95C21.36 20.81 21.23 20.65 21.23 20.42C21.23 20.12 21.47 19.86 21.74 19.86C22.03 19.86 22.28 19.97 25.77 21.77L25.8 21.74L25.86 21.66C27.14 20.28 28.1 18.6 28.76 16.57C28.9 16.14 29.06 15.98 29.35 15.98C29.72 15.98 29.99 16.24 29.99 16.56C29.99 16.93 29.43 18.37 28.89 19.38C28.31 20.48 27.53 21.62 26.86 22.36L26.93 22.38ZM23.03 16.81C23.62 17.83 24.13 19.02 24.13 19.29C24.13 19.56 23.83 19.8 23.51 19.8C23.24 19.8 23.14 19.7 22.97 19.24C22.65 18.47 22.36 17.86 22.03 17.26C21.9 17.05 21.87 16.96 21.87 16.83C21.87 16.56 22.14 16.3 22.45 16.3C22.66 16.29 22.82 16.44 23.03 16.81ZM25.96 16.53C26.41 17.41 26.87 18.56 26.87 18.83C26.87 19.12 26.58 19.36 26.26 19.36C25.99 19.36 25.86 19.25 25.72 18.82C25.56 18.4 25.19 17.54 24.86 16.8C24.76 16.59 24.73 16.5 24.73 16.37C24.73 16.1 24.99 15.87 25.29 15.87C25.56 15.88 25.67 15.99 25.96 16.53Z" fill="white" stroke="white" stroke-width="0.5" stroke-miterlimit="10"/>
<path d="M37.72 15.27H36.34C36.05 15.27 35.88 15.05 35.88 14.73C35.88 14.38 36.06 14.15 36.34 14.15H43.86C44.13 14.15 44.32 14.37 44.32 14.73C44.32 15.07 44.14 15.27 43.86 15.27H42.6V19.75H44.1C44.37 19.75 44.58 19.99 44.58 20.33C44.58 20.67 44.39 20.89 44.1 20.89H42.6V27.55C42.6 27.85 42.34 28.08 41.99 28.08C41.62 28.08 41.38 27.87 41.38 27.55V20.89H38.91C38.86 22.86 38.54 24.52 37.93 25.9C37.35 27.23 36.68 28.11 36.25 28.11C35.93 28.11 35.64 27.82 35.64 27.52C35.64 27.3 35.64 27.28 36.09 26.66C37.13 25.08 37.64 23.23 37.71 20.9H36.08C35.79 20.9 35.6 20.69 35.6 20.34C35.6 19.99 35.79 19.76 36.08 19.76H37.71V15.27H37.72ZM41.38 19.75V15.27H38.91V19.75H41.38ZM50.68 22.63C50.68 22.9 50.38 23.35 49.59 24.21C48.58 25.33 47.25 26.37 45.83 27.17C45.01 27.63 44.39 27.89 44.09 27.89C43.75 27.89 43.45 27.59 43.45 27.23C43.45 26.94 43.59 26.8 44.14 26.57C46.46 25.56 48.03 24.33 49.6 22.3C49.73 22.14 49.9 22.04 50.08 22.04C50.38 22.06 50.68 22.33 50.68 22.63ZM49.5 14.37C49.5 14.58 49.42 14.72 48.96 15.3C47.98 16.53 46.83 17.57 45.5 18.41C44.91 18.78 44.57 18.94 44.33 18.94C44.01 18.94 43.74 18.65 43.74 18.31C43.74 18.07 43.85 17.94 44.28 17.72C45.66 17.02 47.32 15.53 48.36 14.1C48.5 13.89 48.68 13.8 48.89 13.8C49.21 13.8 49.5 14.07 49.5 14.37ZM50.02 18.61C50.02 19.09 49.28 19.94 47.7 21.22C46.44 22.26 44.99 23.12 44.51 23.12C44.17 23.12 43.93 22.86 43.93 22.51C43.93 22.21 44.04 22.08 44.49 21.87C46.36 20.93 47.56 19.95 48.84 18.33C49.03 18.09 49.18 18.01 49.4 18.01C49.75 18.02 50.02 18.28 50.02 18.61Z" fill="white" stroke="white" stroke-width="0.5" stroke-miterlimit="10"/>
<path d="M61.77 20.65C62.14 21.74 62.63 22.7 63.21 23.45C63.8 23.08 65.24 21.99 65.95 21.37C66.17 21.18 66.35 21.1 66.54 21.1C66.86 21.1 67.2 21.42 67.2 21.76C67.2 21.98 67.1 22.13 66.78 22.37C65.93 23.03 64.99 23.65 63.9 24.28C64.83 25.26 65.96 26.02 67.45 26.68C67.82 26.82 67.98 27.02 67.98 27.31C67.98 27.68 67.68 28 67.31 28C66.72 28 64.75 26.75 63.63 25.68C62.24 24.35 61.29 22.77 60.65 20.69C59.9 21.46 59.31 21.95 58.23 22.72V26.42C59.8 26.02 60.47 25.84 61.11 25.65C61.67 25.46 61.7 25.46 61.86 25.46C62.2 25.46 62.44 25.72 62.44 26.09C62.44 26.3 62.3 26.47 62.06 26.57C60.78 27.08 56.23 28.19 55.4 28.19C55.02 28.19 54.79 27.95 54.79 27.55C54.79 27.33 54.9 27.15 55.11 27.07C55.22 27.02 55.3 27.01 55.8 26.93C56.38 26.83 56.63 26.79 57.02 26.69V23.52L56.88 23.6C55.54 24.38 53.82 25.15 53.44 25.15C53.12 25.15 52.85 24.85 52.85 24.51C52.85 24.32 52.95 24.13 53.12 24.03C53.2 23.98 53.2 23.98 53.76 23.79C55.44 23.25 57.63 21.98 59.22 20.68H53.59C53.3 20.68 53.11 20.47 53.11 20.18C53.11 19.88 53.3 19.65 53.59 19.65H60.01V18.09H54.95C54.68 18.09 54.52 17.9 54.52 17.59C54.52 17.29 54.7 17.09 54.95 17.09H60.01V15.62H54.17C53.9 15.62 53.72 15.41 53.72 15.11C53.72 14.81 53.9 14.6 54.17 14.6H60.01V13.46C60.01 13.19 60.25 13 60.6 13C60.97 13 61.22 13.19 61.22 13.46V14.6H67.03C67.29 14.6 67.48 14.81 67.48 15.11C67.48 15.41 67.3 15.62 67.03 15.62H61.21V17.09H66.2C66.47 17.09 66.65 17.28 66.65 17.59C66.65 17.89 66.47 18.09 66.2 18.09H61.21V19.63H67.64C67.9 19.63 68.09 19.85 68.09 20.16C68.09 20.45 67.9 20.66 67.64 20.66H61.77V20.65Z" fill="white" stroke="white" stroke-width="0.5" stroke-miterlimit="10"/>
<path d="M78.71 26.68C78.71 27.32 78.55 27.69 78.2 27.88C77.93 28.02 77.64 28.06 76.76 28.06C74.98 28.06 74.55 27.92 74.55 27.31C74.55 26.94 74.81 26.69 75.17 26.69C75.23 26.69 75.27 26.69 75.41 26.72C75.73 26.77 76.32 26.8 76.82 26.8C77.32 26.8 77.46 26.67 77.46 26.24V19.44H71.2C70.91 19.44 70.72 19.2 70.72 18.86C70.72 18.52 70.93 18.27 71.2 18.27H84.84C85.13 18.27 85.34 18.53 85.34 18.86C85.34 19.21 85.13 19.44 84.84 19.44H78.71V26.68ZM74.76 21.45C74.76 21.83 73.86 23.67 73.1 24.88C72.3 26.13 71.9 26.56 71.55 26.56C71.21 26.56 70.88 26.24 70.88 25.9C70.88 25.66 70.91 25.6 71.28 25.15C72.08 24.14 72.99 22.56 73.52 21.28C73.63 20.99 73.84 20.83 74.08 20.83C74.45 20.82 74.76 21.09 74.76 21.45ZM83 14.05C83.29 14.05 83.51 14.29 83.51 14.63C83.51 14.97 83.3 15.19 83 15.19H73.03C72.74 15.19 72.53 14.95 72.53 14.63C72.53 14.29 72.74 14.05 73.03 14.05H83ZM82.44 21.22C83.48 22.63 84.09 23.56 85 25.21C85.1 25.39 85.14 25.55 85.14 25.69C85.14 26.01 84.8 26.33 84.44 26.33C84.25 26.33 84.06 26.23 83.93 26.07C83.88 26.02 83.88 26.02 83.69 25.67C82.94 24.23 82.07 22.84 81.34 21.81C81.21 21.65 81.16 21.51 81.16 21.36C81.16 21.04 81.45 20.77 81.78 20.77C82.04 20.78 82.17 20.87 82.44 21.22Z" fill="white" stroke="white" stroke-width="0.5" stroke-miterlimit="10"/>
</g>
<defs>
<clipPath id="clip0">
<rect width="106" height="42.22" fill="white"/>
</clipPath>
</defs>
</svg>
