<svg width="9" height="29" viewBox="0 0 9 29" fill="none" xmlns="http://www.w3.org/2000/svg">
<path d="M7.6 0.42L7.84 0.0900002C7.88 0.0400002 7.91 0 7.96 0C8.01 0 8.09 0.0500004 8.1 0.0600004L8.65 0.49C8.72 0.55 8.75 0.57 8.75 0.63C8.75 0.72 8.7 0.77 8.39 0.92V6.91C8.39 7.04 8.41 7.6 8.41 7.71C8.41 8.36 8.34 8.69 7.35 8.78C7.31 8.27 7.11 8.19 6.12 7.9V7.78L7.32 7.82C7.66 7.83 7.67 7.71 7.67 7.49V4.63H1.52V7.25C1.52 7.44 1.54 8.3 1.54 8.48C1.54 8.62 1.54 8.81 1.01 8.81C0.790002 8.81 0.760002 8.73 0.760002 8.57C0.760002 8.36 0.790001 7.42 0.790001 7.23V1.23C0.790001 0.81 0.79 0.38 0.75 0.0200005L1.62 0.43H7.6V0.42ZM1.51 0.7V4.36H4.24V0.7H1.51ZM7.66 4.36V0.7H4.96V4.36H7.66Z" fill="#231815"/>
<path d="M7.56999 10.25L7.79999 9.92C7.82999 9.88 7.85999 9.83 7.91999 9.83C7.95999 9.83 7.98999 9.84 8.05999 9.89L8.62999 10.32C8.67999 10.36 8.72999 10.39 8.72999 10.47C8.72999 10.55 8.64999 10.61 8.38999 10.75V16.85C8.38999 17.01 8.40999 17.7 8.40999 17.84C8.40999 18.32 8.31999 18.66 7.34999 18.76C7.30999 18.22 7.13999 18.17 6.22999 17.89V17.77L7.32999 17.81C7.67999 17.82 7.67999 17.69 7.67999 17.48V10.53H1.87V13.35C1.87 15.63 1.61999 17.59 0.309994 18.78L0.209991 18.71C0.899991 17.37 1.14999 16.12 1.14999 13.37V11C1.14999 10.52 1.12999 10.21 1.10999 9.84L1.94999 10.25H7.56999ZM5.81999 11.99L6.13999 11.51C6.17999 11.46 6.20999 11.42 6.26999 11.42C6.29999 11.42 6.33999 11.43 6.39999 11.49L7.02999 12.03C7.05999 12.06 7.09999 12.1 7.09999 12.15C7.09999 12.27 6.97999 12.27 6.89999 12.27H4.93999V13.68H6.01999L6.35999 13.2C6.39999 13.15 6.42999 13.1 6.48999 13.1C6.53999 13.1 6.57 13.13 6.62 13.18L7.24999 13.72C7.29999 13.77 7.32999 13.81 7.32999 13.85C7.32999 13.96 7.19999 13.96 7.13999 13.96H3.03999C2.78999 13.96 2.55999 13.97 2.25999 14L2.12 13.64C2.41 13.66 2.72 13.68 3.12 13.68H4.22999V12.27H3.29999C3.07999 12.27 2.85999 12.27 2.52999 12.31L2.38999 11.95C2.69999 11.97 2.99999 11.99 3.37999 11.99H4.22999V11.78C4.22999 11.66 4.22999 11.19 4.18999 10.83L5.04999 10.94C5.15999 10.95 5.29999 10.97 5.29999 11.08C5.29999 11.2 5.17999 11.24 4.92999 11.34V12H5.81999V11.99ZM5.87999 14.66C5.89999 14.62 5.94999 14.58 5.99999 14.58C6.03999 14.58 6.09 14.61 6.12 14.63L6.66999 15.05C6.71999 15.09 6.75999 15.12 6.75999 15.18C6.75999 15.24 6.75999 15.28 6.44999 15.44V16.18C6.44999 16.39 6.48999 17.28 6.48999 17.46C6.48999 17.56 6.48999 17.79 5.97999 17.79C5.76999 17.79 5.76999 17.69 5.76999 17.56V17.4H3.56999V17.74C3.56999 17.88 3.56999 18.04 3.08999 18.04C2.84999 18.04 2.84999 17.91 2.84999 17.82C2.84999 17.63 2.88999 16.68 2.88999 16.46V15.71C2.88999 15.33 2.87999 14.98 2.84999 14.56L3.63999 15H5.65999L5.87999 14.66ZM5.76999 15.26H3.56999V17.12H5.76999V15.26Z" fill="#231815"/>
<path d="M7.34 22.17L7.58 21.82C7.61 21.77 7.65 21.73 7.7 21.73C7.74 21.73 7.8 21.76 7.84 21.79L8.42 22.22C8.5 22.28 8.53 22.31 8.53 22.37C8.53 22.48 8.29 22.61 8.17 22.66V26.45C8.17 26.65 8.19 27.55 8.19 27.73C8.19 28.26 8.15 28.6 7.07 28.71C7.06 28.3 6.91 28.15 5.76 27.82V27.7L7.18 27.74C7.45 27.75 7.46 27.7 7.46 27.49V25.94H2.21C1.81 27.73 0.51 28.49 0.0699997 28.75L0 28.65C1.62 27.07 1.68 25.57 1.68 23.89V23.15C1.68 22.9 1.68 22.85 1.67 22.41C1.2 22.81 0.740002 23.17 0.100002 23.48L0.0200005 23.39C1.91 21.68 2.7 20.39 2.99 19.54L3.77 19.78C4.02 19.86 4.04 19.93 4.04 19.97C4.04 20.1 3.87 20.12 3.64 20.13C3.51 20.32 3.47 20.38 3.33 20.57H5.29L5.6 20.22C5.65 20.16 5.69 20.13 5.74 20.13C5.8 20.13 5.87 20.19 5.89 20.21L6.53 20.8C6.57 20.84 6.61 20.89 6.61 20.95C6.61 21.07 6.5 21.11 6.04 21.13C5.66 21.52 5.26 21.93 4.99 22.17H7.34V22.17ZM4.64 22.17C4.88 21.76 5.17 21.2 5.31 20.84H3.12C2.77 21.3 2.54 21.55 2.09 22.01L2.45 22.17H4.64V22.17ZM4.49 24.17H2.38C2.36 24.86 2.34 25.15 2.26 25.66H4.49V24.17ZM2.38 22.45V23.9H4.49V22.45H2.38ZM5.2 22.45V23.9H7.45V22.45H5.2ZM7.45 24.17H5.2V25.66H7.45V24.17Z" fill="#231815"/>
</svg>
