<svg width="186" height="11" viewBox="0 0 186 11" fill="none" xmlns="http://www.w3.org/2000/svg">
<path d="M1.49034 6.93C1.50034 7 1.50034 7.03 1.50034 7.05C1.50034 7.3 1.34034 7.43 1.07034 7.43C0.830343 7.43 0.700342 7.29 0.650342 7.01L0.0103425 3.01C0.000342451 2.97 0.000342451 2.94 0.000342451 2.91C-0.00965755 2.67 0.200342 2.49 0.500342 2.49C0.730342 2.49 0.860342 2.61 0.910342 2.86L3.82034 2.61V0.41C3.83034 0.18 4.02034 0 4.28034 0C4.53034 0 4.74034 0.18 4.74034 0.41V2.53L7.85034 2.27C8.34034 2.22 8.69034 2.51 8.69034 2.95C8.69034 3.02 8.68034 3.11 8.67034 3.18L8.12034 5.75C8.34034 5.77 8.46034 5.92 8.46034 6.15C8.46034 6.39 8.32034 6.53 8.03034 6.55L4.74034 6.75V10.32C4.74034 10.56 4.55034 10.73 4.28034 10.73C4.02034 10.73 3.82034 10.56 3.82034 10.32V6.79L1.49034 6.93ZM3.83034 3.43L1.03034 3.67L1.38034 6.15L3.83034 6.01V3.43ZM7.23034 5.79L7.65034 3.34C7.66034 3.17 7.60034 3.12 7.40034 3.12L4.74034 3.35V5.95L7.23034 5.79Z" fill="black"/>
<path d="M12.9503 5.18C12.9503 5.74 12.5903 7.3 12.3403 7.9C12.2003 8.2 12.0803 8.32 11.8703 8.32C11.6103 8.32 11.4103 8.14 11.4103 7.89C11.4103 7.75 11.4303 7.69 11.5503 7.4C11.8103 6.86 12.1303 5.84 12.2303 5.19C12.2803 4.9 12.3903 4.77 12.5903 4.77C12.8203 4.77 12.9503 4.93 12.9503 5.18ZM14.3903 3.78C14.4303 3.83 14.4303 3.84 14.5003 4.13C14.7803 5.32 15.3403 6.34 16.0603 6.92C16.8403 7.54 18.0403 7.9 19.3603 7.9C19.7303 7.9 19.8603 7.84 19.8603 7.66C19.8603 7.44 19.6003 6.81 19.2703 6.27C19.2103 6.16 19.1903 6.09 19.1903 6.01C19.1903 5.88 19.3303 5.75 19.4803 5.75C19.6503 5.75 19.7803 5.88 20.2103 6.48C20.6903 7.14 20.9503 7.68 20.9503 8.02C20.9503 8.56 20.4703 8.79 19.3503 8.79C17.3503 8.79 15.6903 8.07 14.8303 6.82C14.3703 6.16 14.0103 5.3 13.7903 4.31C13.7403 4.09 13.7303 4.02 13.7303 3.96C13.7303 3.76 13.8903 3.61 14.1103 3.61C14.2303 3.61 14.3403 3.67 14.3903 3.78ZM16.2803 2.06C16.6803 2.66 17.1203 3.1 17.3403 3.1C17.4103 3.1 17.4703 3.06 17.5803 2.94C17.6403 2.87 17.7003 2.84 17.7703 2.84C17.8803 2.84 17.9603 2.97 17.9603 3.16C17.9603 3.36 17.8803 3.74 17.7703 3.95C17.6903 4.13 17.5803 4.2 17.4203 4.2C17.2403 4.2 17.0503 4.12 16.8403 3.94C16.4603 3.6 15.9503 2.9 15.7203 2.38C15.6603 2.24 15.6403 2.14 15.6403 2.06C15.6403 1.92 15.7803 1.8 15.9503 1.8C16.0903 1.81 16.1603 1.86 16.2803 2.06ZM21.1603 3.48C21.4603 3.8 21.5403 3.95 21.5403 4.14C21.5403 4.38 21.3103 4.58 21.0603 4.58C20.8403 4.58 20.7803 4.53 20.5903 4.26C20.1903 3.71 19.6903 3.13 19.2303 2.7C19.1203 2.59 19.0603 2.48 19.0603 2.38C19.0603 2.21 19.2003 2.07 19.3603 2.07C19.6403 2.06 20.4303 2.7 21.1603 3.48Z" fill="black"/>
<path d="M33.8603 5.31C33.8603 7.83 32.1803 9.71 29.9503 9.71C27.7303 9.71 26.0603 7.81 26.0603 5.31C26.0603 2.8 27.7503 0.919998 29.9803 0.919998C32.1703 0.919998 33.8603 2.83 33.8603 5.31ZM27.1403 5.33C27.1403 7.3 28.3603 8.78 29.9703 8.78C31.5503 8.78 32.7803 7.28 32.7803 5.33C32.7803 3.35 31.5603 1.85 29.9503 1.85C28.3703 1.85 27.1403 3.36 27.1403 5.33Z" fill="black"/>
<path d="M41.7703 1.3C41.8503 0.989995 42.0003 0.869995 42.2503 0.869995C42.4903 0.869995 42.6703 1.04 42.6703 1.27C42.6703 1.4 42.4403 2.06 41.9303 3.48C42.1103 3.47 42.2203 3.47 42.3503 3.47C43.5403 3.47 44.1403 3.99 44.1403 4.99C44.1403 6.47 43.6403 8.3 42.9503 9.33C42.6003 9.85 42.4003 10 42.0103 10C41.7203 10 41.3903 9.75999 40.9703 9.22999C40.7103 8.90999 40.6203 8.77 40.6203 8.67C40.6203 8.54 40.7603 8.41 40.9003 8.41C40.9803 8.41 41.0303 8.42999 41.1903 8.56999C41.5703 8.88999 41.8303 9.06999 41.9103 9.06999C42.0703 9.06999 42.2603 8.82999 42.4903 8.35999C42.9603 7.41999 43.2603 6.14 43.2603 5.12C43.2603 4.52 43.0103 4.28 42.3503 4.28C42.1503 4.28 41.9803 4.29 41.6103 4.32C41.1303 5.54 40.4203 7.04 39.7903 8.25C39.6703 8.47 39.6703 8.47 39.6603 8.49C39.5803 8.61999 39.4203 8.71 39.2603 8.71C39.0203 8.71 38.8303 8.53 38.8303 8.3C38.8303 8.16 38.8403 8.12 39.0503 7.78C39.4103 7.18 40.3003 5.36 40.6903 4.4C40.1503 4.46 39.8903 4.5 39.3203 4.58C39.2203 4.59 39.1903 4.59 39.1403 4.59C38.8903 4.59 38.7103 4.43 38.7103 4.21C38.7103 3.97 38.8703 3.79 39.1303 3.75C39.3003 3.71 40.5003 3.59 41.0003 3.54C41.3603 2.57 41.5803 1.93 41.7703 1.3ZM46.3603 3.15C47.3203 4.03 48.2503 5.33 48.2503 5.78C48.2503 6.04 48.0303 6.26 47.7603 6.26C47.5403 6.26 47.4503 6.18 47.2403 5.79C46.8403 5.02 46.2103 4.09999 45.6903 3.54999C45.6203 3.46999 45.5803 3.39 45.5803 3.29C45.5803 3.09 45.7403 2.93 45.9403 2.93C46.0903 2.93 46.1903 2.97 46.3603 3.15ZM47.9803 2.43C48.2703 2.74 48.4103 2.98 48.4103 3.14C48.4103 3.34 48.2403 3.5 48.0403 3.5C47.9103 3.5 47.8403 3.44 47.7203 3.25C47.4803 2.87 47.1903 2.52 46.8303 2.15C46.7103 2.03 46.6603 1.95 46.6603 1.86C46.6603 1.73 46.7703 1.63 46.8903 1.63C47.1103 1.63 47.5403 1.96 47.9803 2.43ZM48.8703 1.49C49.2403 1.83 49.4203 2.09 49.4203 2.29C49.4203 2.49 49.2603 2.66 49.0603 2.66C48.9303 2.66 48.8803 2.62 48.7403 2.43C48.4603 2.02 48.1603 1.67 47.8603 1.39C47.7403 1.27 47.7003 1.2 47.7003 1.12C47.7003 0.999995 47.8003 0.899995 47.9303 0.899995C48.0903 0.899995 48.4503 1.13 48.8703 1.49Z" fill="black"/>
<path d="M59.6403 8.65C59.8303 8.65 59.9903 8.82 59.9903 9.02C59.9903 9.24 59.8303 9.39 59.6403 9.39H51.6503C51.4003 9.39 51.2103 9.22 51.2103 8.98C51.2103 8.86 51.2703 8.74 51.3703 8.64L59.1203 0.919998C59.1903 0.849998 59.2903 0.809998 59.4003 0.809998C59.6003 0.809998 59.8003 0.999998 59.8003 1.19C59.8003 1.27 59.7603 1.35 59.6703 1.44L52.4503 8.64H59.6403V8.65Z" fill="black"/>
<path d="M62.9503 9.26C62.8703 9.49 62.6903 9.61 62.4703 9.61C62.1703 9.61 61.9303 9.38 61.9303 9.09C61.9303 9.01 61.9403 8.93 61.9803 8.85L65.0403 1.57C65.2003 1.21 65.4503 1.03 65.8003 1.03C66.1403 1.03 66.3903 1.21 66.5303 1.57L69.5903 8.85C69.6403 8.95 69.6503 9.01 69.6503 9.09C69.6503 9.38 69.4203 9.59 69.1103 9.59C68.8803 9.59 68.7103 9.47 68.6203 9.25L67.6003 6.8H63.9803L62.9503 9.26ZM64.3003 5.91H67.2703L65.7803 2.04L64.3003 5.91Z" fill="black"/>
<path d="M72.1103 9.14C72.1103 9.4 71.8803 9.6 71.5803 9.6C71.2803 9.6 71.0603 9.41 71.0603 9.14V2.15C71.0603 1.45 71.4003 1.12 72.1003 1.12H74.3903C76.2903 1.12 77.5003 2.08999 77.5003 3.60999C77.5003 5.18999 76.3403 6.14 74.3803 6.14H72.1003V9.14H72.1103ZM74.5403 5.23C75.7003 5.23 76.4503 4.60999 76.4503 3.60999C76.4503 2.64999 75.7103 2.03 74.5503 2.03H72.3703C72.1903 2.03 72.1103 2.13 72.1103 2.31V5.24H74.5403V5.23Z" fill="black"/>
<path d="M82.5303 1.12C84.4303 1.12 85.4903 1.9 85.4903 3.25C85.4903 4.19 85.0203 4.75 84.0003 5.06C85.2103 5.37 85.8803 6.13 85.8803 7.18C85.8803 8.68 84.7303 9.51 82.6403 9.51H80.0703C79.4103 9.51 79.0603 9.16999 79.0603 8.52999V2.09C79.0603 1.44 79.4003 1.12 80.0703 1.12H82.5303V1.12ZM82.6803 4.7C83.7503 4.7 84.4803 4.11999 84.4803 3.29999C84.4803 2.51999 83.8103 2.03 82.7303 2.03H80.3803C80.1803 2.03 80.1303 2.08 80.1303 2.26V4.7H82.6803ZM80.1203 8.35999C80.1203 8.53999 80.1903 8.60999 80.3803 8.60999H82.6903C84.1203 8.60999 84.8403 8.11 84.8403 7.12C84.8403 6.17 83.9903 5.56 82.6703 5.56H80.1203V8.35999V8.35999Z" fill="black"/>
<path d="M95.7603 2.51001C95.8403 2.68001 95.9003 3.04001 95.9003 3.30001C95.9003 3.72001 95.7403 4.54001 95.5503 5.11001C95.2303 6.07001 94.6103 7.20001 94.0303 7.94001C93.5403 8.54001 93.0603 8.86001 92.6303 8.86001C92.2303 8.86001 91.8003 8.62001 91.5003 8.21001C91.1203 7.72001 90.8603 6.87001 90.8603 6.10001C90.8603 3.80001 93.4103 1.71001 96.2203 1.71001C98.4503 1.71001 100.14 3.32001 100.14 5.43001C100.14 7.01001 99.3103 8.39001 97.8903 9.17001C97.5103 9.39001 97.1703 9.51001 97.0003 9.51001C96.8603 9.51001 96.6803 9.35001 96.6803 9.21001C96.6803 9.14001 96.7403 9.02001 96.8103 8.96001C96.8703 8.90001 96.8703 8.90001 97.2803 8.67001C98.3803 8.05001 99.1903 6.73001 99.1903 5.53001C99.1903 4.63001 98.8103 3.76001 98.1803 3.20001C97.8603 2.92001 97.4603 2.72001 96.9603 2.59001C96.7703 2.54001 96.5003 2.48001 96.4303 2.48001L95.7903 2.50001H95.7603V2.51001ZM94.9703 2.65001C93.8003 2.97001 92.9403 3.55001 92.3203 4.41001C91.9403 4.95001 91.7403 5.53001 91.7403 6.09001C91.7403 7.04001 92.1803 8.01001 92.6203 8.01001C92.9003 8.01001 93.2903 7.66001 93.6903 7.05001C94.4603 5.86001 95.0003 4.32001 95.0003 3.31001C95.0003 3.15001 95.0003 3.08001 94.9603 2.72001V2.65001H94.9703Z" fill="black"/>
<path d="M129.17 6.56C129.31 6.56 129.45 6.68 129.45 6.81C129.45 6.86 129.44 6.91 129.39 7.04C129.08 7.88 128.86 8.61 128.83 8.94C128.78 9.29 128.58 9.53 128.36 9.53C127.8 9.53 127.42 8.33 127.42 6.48C127.42 5.6 127.62 2.95 127.78 1.81C127.84 1.43 127.97 1.27 128.26 1.27C128.52 1.27 128.7 1.46 128.7 1.73C128.7 1.79 128.69 1.89 128.65 2.13C128.46 3.33 128.25 5.62 128.25 6.46C128.25 6.88 128.29 7.36 128.36 7.98C128.95 6.62 128.99 6.56 129.17 6.56ZM135.34 7.96C135.63 7.96 135.84 8.15 135.84 8.4C135.84 8.56 135.77 8.7 135.64 8.81C135.53 8.88 135.41 8.91 135.1 8.91C134.17 8.91 132.98 8.73 132.39 8.51C131.72 8.25 131.1 7.66 131.1 7.28C131.1 7.09 131.24 6.94 131.43 6.94C131.57 6.94 131.63 6.98 131.74 7.12C132.18 7.68 133.19 7.97 134.77 7.97C135.02 7.97 135.07 7.97 135.2 7.96H135.34V7.96ZM134.67 3.02C133.99 3.02 133.1 3.19 131.79 3.58C131.71 3.6 131.66 3.62 131.6 3.62C131.38 3.62 131.2 3.44 131.2 3.24C131.2 3.1 131.31 2.99 131.55 2.88C132.49 2.47 133.84 2.16 134.63 2.16C135.23 2.16 135.51 2.32 135.51 2.63C135.51 2.88 135.31 3.04 134.98 3.04L134.67 3.02Z" fill="black"/>
<path d="M143.1 1.94C143.66 1.88 144.62 1.71 145.11 1.59C145.22 1.57 145.29 1.55 145.36 1.55C145.62 1.55 145.8 1.72 145.8 1.96C145.8 2.2 145.68 2.33 145.39 2.39C144.78 2.52 143.94 2.67 142.95 2.79C142.87 3.45 142.78 4.17 142.75 4.7C143.25 4.51 143.72 4.39 144.26 4.33C144.34 4.09 144.38 3.96 144.46 3.63C144.52 3.41 144.69 3.28 144.93 3.28C145.18 3.28 145.37 3.46 145.37 3.7C145.37 3.75 145.36 3.8 145.35 3.87C145.28 4.15 145.24 4.29 145.24 4.29C147.16 4.43 148.3 5.47 148.3 7.07C148.3 8.28 147.69 9.25 146.52 9.86C146.04 10.12 145.37 10.35 145.1 10.35C144.92 10.35 144.79 10.22 144.79 10.03C144.79 9.87 144.9 9.78 145.15 9.68C146.57 9.13 147.33 8.2 147.33 7.04C147.33 5.86 146.38 5.05 144.97 5C144.39 6.34 143.76 7.33 142.81 8.37C142.86 8.68 142.97 9.19 143.03 9.34C143.05 9.41 143.07 9.51 143.07 9.58C143.07 9.87 142.89 10.06 142.63 10.06C142.38 10.06 142.25 9.93 142.13 9.57C142.08 9.43 142.05 9.27 142.02 9.07C141.35 9.59 140.81 9.85 140.42 9.85C139.75 9.85 139.28 9.23 139.28 8.35C139.28 7.23 140.23 6.05 141.82 5.12C141.84 4.54 141.92 3.75 142.01 2.89C141.46 2.94 140.76 2.99 140.44 2.99C140.13 2.99 139.97 2.85 139.97 2.57C139.97 2.34 140.1 2.19 140.32 2.14C140.38 2.13 140.38 2.13 140.57 2.13C140.97 2.12 141.67 2.08 142.12 2.03C142.18 1.62 142.31 0.890004 142.35 0.770004C142.41 0.540004 142.58 0.410004 142.84 0.410004C143.12 0.410004 143.28 0.570004 143.28 0.830004C143.28 0.890004 143.27 0.950004 143.24 1.06L143.08 1.85L143.1 1.94ZM141.8 6.04C140.73 6.78 140.17 7.56 140.17 8.28C140.17 8.69 140.34 8.99 140.55 8.99C140.86 8.99 141.28 8.71 141.89 8.13C141.83 7.52 141.79 6.67 141.79 6.28V6.04H141.8ZM142.72 5.54C142.71 5.73 142.7 5.89 142.7 6.15C142.7 6.51 142.71 6.92 142.74 7.28C143.18 6.74 143.65 5.95 143.99 5.13C143.53 5.22 143.07 5.36 142.72 5.54Z" fill="black"/>
<path d="M156.45 1.73C155.19 1.99 153.98 2.19 153.63 2.19C153.37 2.19 153.17 2.01 153.17 1.76C153.17 1.57 153.28 1.42 153.46 1.38C153.54 1.36 153.58 1.34 153.86 1.33C154.51 1.29 156.13 1.05 156.8 0.900005C156.9 0.880005 156.93 0.880005 156.99 0.880005C157.33 0.880005 157.63 1.16 157.63 1.47C157.63 1.66 157.59 1.72 157.26 2.11C155.8 3.77 154.84 4.76 153.69 5.82L153.73 5.84C154.74 5.17 155.66 4.86 156.67 4.86C158.34 4.86 159.56 5.84 159.56 7.17C159.56 8.9 158.06 10.05 155.82 10.05C154.72 10.05 153.85 9.44 153.85 8.67C153.85 7.99 154.58 7.46 155.53 7.46C156.43 7.46 157.21 7.95 157.7 8.8C158.29 8.4 158.6 7.85 158.6 7.2C158.6 6.3 157.76 5.63 156.63 5.63C155.35 5.63 154.11 6.12 152.79 7.17C152.6 7.33 152.47 7.39 152.33 7.39C152.11 7.39 151.9 7.13 151.9 6.87C151.9 6.64 151.91 6.62 152.42 6.14C153.75 4.9 155.54 3 156.51 1.77L156.45 1.73ZM155.48 8.2C155.04 8.2 154.7 8.39 154.7 8.66C154.7 9 155.2 9.26 155.83 9.26C156.18 9.26 156.5 9.22 156.86 9.13C156.53 8.54 156.02 8.2 155.48 8.2Z" fill="black"/>
<path d="M164.64 6.81C165.01 6.59 165.34 6.39 165.73 6.13C165.85 6.05 165.95 6.01 166.03 6.01C166.21 6.01 166.36 6.18 166.36 6.37C166.36 6.51 166.31 6.59 166.06 6.77C164.57 7.83 162.89 8.79 162.52 8.79C162.3 8.79 162.12 8.6 162.12 8.36C162.12 8.24 162.18 8.13 162.29 8.05C162.34 8.03 162.34 8.03 162.61 7.89C162.86 7.78 163.44 7.49 163.76 7.31V4.04L162.64 4.21C162.62 4.22 162.59 4.22 162.57 4.22C162.37 4.23 162.2 4.06 162.2 3.85C162.2 3.63 162.33 3.49 162.57 3.45L163.76 3.28V0.800003C163.76 0.580003 163.95 0.420003 164.19 0.420003C164.43 0.420003 164.62 0.590003 164.62 0.800003V3.15L165.52 3.02H165.59C165.81 3.02 165.95 3.16 165.95 3.4C165.95 3.59 165.82 3.72 165.59 3.76L164.62 3.92V6.81H164.64ZM171.2 6.79C171.15 6.93 170.96 7.33 170.77 7.68C170.16 8.74 169.23 9.72 168.31 10.31C168.13 10.42 168.06 10.45 167.95 10.45C167.79 10.45 167.64 10.28 167.64 10.11C167.64 9.94 167.68 9.91 168.07 9.61C169.03 8.88 169.89 7.81 170.31 6.84L169.37 6.9C168.99 7.63 168.28 8.42 167.41 9.09C166.92 9.47 166.63 9.64 166.47 9.64C166.31 9.64 166.16 9.47 166.16 9.3C166.16 9.14 166.2 9.11 166.57 8.84C167.23 8.37 167.89 7.7 168.47 6.94L167.59 7C166.93 7.66 166.31 8.14 166.07 8.14C165.91 8.14 165.76 8 165.76 7.84C165.76 7.7 165.77 7.67 166.1 7.43C166.65 6.99 167.41 6.15 167.9 5.43L166.31 5.53L166.24 5.54C166.06 5.56 165.9 5.41 165.9 5.2C165.9 4.98 166.04 4.85 166.27 4.83L172.66 4.39H172.72C172.94 4.38 173.09 4.52 173.09 4.73C173.09 4.96 172.95 5.1 172.71 5.11L168.82 5.37C168.7 5.62 168.45 6.01 168.22 6.28L171.91 6.04H172.02C172.46 6.04 172.68 6.26 172.68 6.69C172.68 7.43 172.34 9.02 172.03 9.69C171.78 10.27 171.49 10.52 171.08 10.52C170.83 10.52 170.17 10.28 169.8 10.06C169.64 9.98 169.56 9.87 169.56 9.76C169.56 9.59 169.69 9.46 169.85 9.46C169.92 9.46 169.98 9.47 170.11 9.52C170.39 9.6 170.61 9.65 170.77 9.65C171.01 9.65 171.13 9.55 171.27 9.24C171.53 8.68 171.8 7.57 171.8 7C171.8 6.83 171.69 6.74 171.5 6.75H171.46L171.2 6.79ZM167.79 3.91C167.78 4.16 167.65 4.28 167.41 4.28C167.16 4.28 167.03 4.14 167 3.87L166.82 0.880003V0.820003C166.82 0.570003 166.98 0.420003 167.24 0.420003C167.42 0.420003 167.53 0.480003 167.6 0.600003L170.92 0.300003H171.09C171.57 0.300003 171.79 0.520003 171.76 0.980003L171.63 3.68C171.62 3.94 171.49 4.06 171.23 4.06C170.99 4.06 170.87 3.94 170.85 3.71L167.79 3.91ZM170.92 1.26C170.93 1.08 170.82 0.970003 170.68 0.980003H170.63L167.66 1.23L167.7 1.93L170.91 1.64L170.92 1.26ZM170.9 2.31L167.73 2.55L167.77 3.27L170.88 3.05L170.9 2.31Z" fill="black"/>
<path d="M184.72 4.51C185.04 4.68 185.19 4.8 185.19 4.89C185.19 4.96 185.12 5.01 184.96 5.06C184.64 5.14 184.23 5.22 184.05 5.22C183.82 5.22 183.67 5.12 182.96 4.58C181.74 3.63 180.47 2.42 179.58 1.37C178.26 3.25 176.79 4.58 175.01 5.5C174.84 5.6 174.77 5.62 174.67 5.62C174.53 5.62 174.39 5.48 174.39 5.32C174.39 5.16 174.39 5.16 174.93 4.79C176.81 3.51 178.29 1.97 179.15 0.379998C179.28 0.139998 179.39 0.0599976 179.57 0.0599976C179.83 0.0599976 180.03 0.239998 180.03 0.469998C180.03 0.579998 180.01 0.659998 179.95 0.789998C181.13 2.12 183.13 3.69 184.72 4.51ZM182.56 9.07C182.76 9.07 182.91 9.23 182.91 9.45C182.91 9.68 182.75 9.85 182.54 9.86L177.79 10.09V10.11C177.8 10.15 177.8 10.18 177.8 10.18C177.82 10.4 177.62 10.55 177.34 10.55C177.08 10.55 176.96 10.43 176.91 10.11L176.43 6.72V6.66C176.44 6.44 176.63 6.28 176.89 6.28C177.11 6.28 177.21 6.35 177.3 6.53L182.07 6.13C182.15 6.12 182.23 6.12 182.23 6.12C182.72 6.12 183 6.36 183 6.78C183 6.84 182.99 6.94 182.98 7L182.56 9.07ZM177.74 5.06C177.45 5.08 177.27 4.93 177.27 4.66C177.27 4.44 177.41 4.31 177.65 4.29L181.3 3.97C181.58 3.95 181.77 4.11 181.77 4.39C181.77 4.61 181.63 4.74 181.37 4.76L177.74 5.06ZM182 7.12L182.01 7.07C182.02 6.97 181.95 6.93 181.82 6.94L177.42 7.28L177.7 9.33L181.68 9.11L182 7.12Z" fill="black"/>
<path d="M106.87 1.73C106.95 1.72 107.03 1.72 107.04 1.72C107.47 1.72 107.69 1.92 107.69 2.32C107.69 2.76 107.34 3.82 106.9 4.77C106.07 6.5 104.76 8.05 103.19 9.13C102.7 9.46 102.48 9.57 102.32 9.57C102.17 9.57 102 9.41 102 9.25C102 9.07 102.05 9.02 102.47 8.73C103.47 8.03 104.6 6.85 105.29 5.8C105.22 5.85 105.15 5.87 105.09 5.87C104.92 5.87 104.84 5.81 104.65 5.55C104.39 5.19 104 4.78 103.65 4.48L103.58 4.43C102.85 5.25 102.58 5.49 102.36 5.49C102.19 5.49 102.04 5.32 102.04 5.15C102.04 5.01 102.05 4.98 102.4 4.62C103.17 3.82 104.06 2.43 104.5 1.38C104.62 1.1 104.75 1.01 104.98 1.01C105.22 1.01 105.44 1.2 105.44 1.42C105.44 1.54 105.43 1.58 105.3 1.86L106.87 1.73ZM104.84 2.71C104.55 3.18 104.29 3.54 103.92 4.02C104.87 4.49 105.54 5.04 105.56 5.38C106.03 4.62 106.69 3.07 106.69 2.68C106.69 2.6 106.63 2.55 106.5 2.56L104.84 2.71ZM109.15 3.89C110.05 4.32 111.27 5.09 111.97 5.64C112.21 5.83 112.33 6.01 112.33 6.19C112.33 6.45 112.1 6.69 111.85 6.69C111.65 6.69 111.61 6.67 111.27 6.37C110.54 5.7 109.84 5.17 109.15 4.73V10.34C109.15 10.57 108.97 10.72 108.71 10.72C108.46 10.72 108.27 10.56 108.27 10.34V0.430003C108.27 0.210003 108.46 0.0500031 108.73 0.0500031C108.98 0.0500031 109.16 0.210003 109.16 0.430003V3.89H109.15Z" fill="black"/>
<path d="M118.82 1.49H118.88C119.12 1.49 119.26 1.65 119.26 1.89C119.26 2.09 119.13 2.23 118.89 2.24L118.45 2.28C118.37 2.83 118.11 3.83 117.9 4.44L119.22 4.32H119.28C119.51 4.32 119.66 4.46 119.66 4.67C119.66 4.91 119.53 5.04 119.28 5.07L113.99 5.54L113.93 5.55C113.71 5.57 113.55 5.39 113.55 5.17C113.55 4.97 113.68 4.83 113.92 4.81L115.29 4.69C115.21 4.23 114.93 3.19 114.74 2.61L114.28 2.65L114.22 2.66C114 2.66 113.83 2.48 113.83 2.25C113.83 2.05 113.96 1.91 114.19 1.89L116.17 1.72V0.4C116.17 0.18 116.36 0 116.6 0C116.84 0 117.03 0.18 117.03 0.4V1.65L118.82 1.49ZM118.67 8.85C118.85 8.89 118.96 9.02 118.96 9.22C118.96 9.42 118.82 9.54 118.55 9.57L115.76 9.76L115.77 9.93L115.78 9.99C115.8 10.19 115.62 10.35 115.37 10.35C115.11 10.35 114.97 10.21 114.94 9.93L114.6 6.69V6.63C114.6 6.41 114.77 6.27 115.02 6.27C115.24 6.27 115.37 6.37 115.42 6.57L118.05 6.29C118.12 6.28 118.19 6.28 118.24 6.28C118.68 6.28 118.91 6.51 118.91 6.95C118.91 6.97 118.9 7.06 118.89 7.15L118.67 8.85ZM118.04 7.23C118.04 7.18 118.04 7.16 118.02 7.12C118 7.1 117.92 7.05 117.91 7.05L117.87 7.06L115.5 7.29L115.68 9.05L117.86 8.89L118.04 7.23ZM115.56 2.52C115.85 3.54 115.9 3.7 115.98 4.08C116.02 4.26 116.05 4.43 116.09 4.6L117.15 4.5C117.31 3.94 117.47 3.1 117.58 2.35L115.56 2.52ZM120.88 10.41C120.88 10.64 120.7 10.79 120.46 10.79C120.21 10.79 120.04 10.63 120.04 10.41V2.1H120C119.76 2.12 119.57 1.96 119.57 1.72C119.57 1.5 119.71 1.37 119.97 1.35L122.86 1.05C122.93 1.04 122.99 1.04 123.02 1.04C123.43 1.04 123.64 1.22 123.64 1.57C123.64 1.93 123.33 2.66 122.52 4.2C123.55 5.04 124.13 6.03 124.13 6.98C124.13 7.68 123.72 8.16 123.13 8.16C122.73 8.16 122.24 8.03 121.75 7.79C121.55 7.69 121.45 7.59 121.45 7.44C121.45 7.27 121.58 7.13 121.74 7.13C121.81 7.13 121.86 7.14 121.99 7.18C122.22 7.25 122.55 7.31 122.77 7.31C123.08 7.31 123.23 7.13 123.23 6.76C123.23 6.06 122.73 5.24 121.85 4.51C121.74 4.41 121.68 4.33 121.68 4.22C121.68 4.1 121.79 3.96 121.92 3.92C122.26 3.24 122.64 2.24 122.64 2.05C122.64 1.92 122.53 1.85 122.35 1.87L120.88 2V10.41Z" fill="black"/>
</svg>
